…
data <- read_delim('data/day2.txt',
                   delim = ' ',
                   col_names = c('opponent', 'myself'),
                   col_types = cols(opponent = col_character(), myself = col_character())) %>%
  inner_join(choice_map %>% rename(opponent = code), by="opponent") %>%
  select(-opponent) %>% rename(opponent = choice) %>%
  inner_join(choice_map %>% rename(myself = code), by="myself") %>%
  select(-myself) %>% rename(myself = choice) %>%
  mutate(round = row_number())
data
```

    ## # A tibble: 2,500 x 3
    ##    opponent myself   round
    ##    <chr>    <chr>    <int>
    ##  1 rock     paper        1
    ##  2 paper    paper        2
    ##  3 paper    scissors     3
    ##  4 paper    scissors     4
    ##  5 paper    rock         5
    ##  6 paper    scissors     6
    ##  7 scissors paper        7
    ##  8 rock     scissors     8
    ##  9 scissors rock         9
    ## 10 scissors rock        10
    ## # ... with 2,490 more rows
…
