…
priority_lower <- tibble(priority = 1:26) %>% mutate(ascii = strtoi(charToRaw('a'), 16L) + priority - 1)
priority_upper <- tibble(priority = 27:52) %>% mutate(ascii = strtoi(charToRaw('A'), 16L) + priority - 27)
priority <- priority_lower %>% bind_rows(priority_upper)
data
```

    ## # A tibble: 300 x 6
    ## # Rowwise: 
    ##    contents                              rucksack group elf   comp1     comp2   
    ##    <chr>                                    <int> <dbl> <chr> <list>    <list>  
    ##  1 gvNbShZZgQfWdQhdPQmggLTFLwmwjFqjVVgM         1     1 elf1  <int [18~ <int [1~
    ##  2 CsJnHllcsnnnnJrGRnRwPPLVmFLHLBjFFVHm~        2     1 elf2  <int [19~ <int [1~
    ##  3 JlnCtctJnJDcJlDCRpPrSSQWfphzWZfbZSvf~        3     1 elf3  <int [20~ <int [2~
    ##  4 WjvRSdSQjvpjWzNlnZlNZqCCMzZZ                 4     2 elf1  <int [14~ <int [1~
    ##  5 nJtJsbctPBPwLNcDZNNGLClC                     5     2 elf2  <int [12~ <int [1~
    ##  6 tsFJHBgJwgJbnvSHHWVWHhVhpQ                   6     2 elf3  <int [13~ <int [1~
    ##  7 zRzPhCCSHVZzfGHZ                             7     3 elf1  <int [8]> <int [8~
    ##  8 qBsWBpqBwBcvqqWgdfZrprdggPHHVZ               8     3 elf2  <int [15~ <int [1~
    ##  9 WWmvwvBbnWmnwvWcbmWWnqNCRSDRRSSjjSDb~        9     3 elf3  <int [23~ <int [2~
    ## 10 rQrznfHHhrHzllzlzTGcJgtJ                    10     4 elf1  <int [12~ <int [1~
    ## # ... with 290 more rows
…
